{
	"variants": {
		"facing=north": { "model": "tdwtf_minecraft:block/cat_idol_block" },
		"facing=south": { "model": "tdwtf_minecraft:block/cat_idol_block", "y": 180 },
		"facing=west":  { "model": "tdwtf_minecraft:block/cat_idol_block", "y": 270 },
		"facing=east":  { "model": "tdwtf_minecraft:block/cat_idol_block", "y": 90 }
	}
}
