{
	"variants": {
		"facing=north": { "model": "tdwtf_minecraft:block/punji_block", "x": 90 },
		"facing=south": { "model": "tdwtf_minecraft:block/punji_block", "x": 90, "y": 180 },
		"facing=west":  { "model": "tdwtf_minecraft:block/punji_block", "x": 90, "y": 270 },
		"facing=east":  { "model": "tdwtf_minecraft:block/punji_block", "x": 90, "y": 90 },
		"facing=up":  { "model": "tdwtf_minecraft:block/punji_block", "x": 0 },
		"facing=down":  { "model": "tdwtf_minecraft:block/punji_block", "x": 180 }
	}
}
