{
	"type": "block",
	"pools": [ {
		"name": "tdwtf_minecraft:punji_block",
		"rolls": 1,
		"entries": [ {
			"type": "item",
			"functions": [ {
				"function": "copy_name",
				"source": "block_entity"
			} ],
			"name": "tdwtf_minecraft:punji_item"
		} ],
		"conditions": [ {
			"condition": "survives_explosion"
		} ]
	} ]
}
